/home/CYBRON/MyNetBeansProjects/AlmostThere/src/main/java/controller/UserDetails_Servlet.java
/home/CYBRON/MyNetBeansProjects/AlmostThere/src/main/java/controller/Hostels_Servlet.java
/home/CYBRON/MyNetBeansProjects/AlmostThere/src/main/java/com/yhupmine/almostthere/Room.java
/home/CYBRON/MyNetBeansProjects/AlmostThere/src/main/java/com/yhupmine/almostthere/User.java
/home/CYBRON/MyNetBeansProjects/AlmostThere/src/main/java/com/yhupmine/almostthere/Hostel.java
/home/CYBRON/MyNetBeansProjects/AlmostThere/src/main/java/controller/LogIn_Servlet.java
/home/CYBRON/MyNetBeansProjects/AlmostThere/src/main/java/com/yhupmine/almostthere/Login.java
/home/CYBRON/MyNetBeansProjects/AlmostThere/src/main/java/controller/Admin_Servlet.java
/home/CYBRON/MyNetBeansProjects/AlmostThere/src/main/java/com/yhupmine/almostthere/DatabaseModel.java
/home/CYBRON/MyNetBeansProjects/AlmostThere/src/main/java/controller/SignUp_Servlet.java
